<?xml version="1.0" encoding="UTF-8"?>
<robot generator="Robot 3.1.2 (Python 3.8.2 on win32)" generated="20200517 09:27:48.308" rpa="false">
<suite id="s1" name="Tests" source="C:\Projects\Desafio Conductor\backend\tests">
<suite id="s1-s1" name="Request Resource" source="C:\Projects\Desafio Conductor\backend\tests\request_resource.robot">
<test id="s1-s1-t1" name="Get List">
<kw name="Get Resources" library="services">
<arguments>
<arg>${EMPTY}</arg>
</arguments>
<assign>
<var>${resp}</var>
</assign>
<kw name="Create Session" library="RequestsLibrary">
<doc>Create Session: create a HTTP session to a server</doc>
<arguments>
<arg>reqres</arg>
<arg>https://reqres.in/api</arg>
</arguments>
<msg timestamp="20200517 09:27:48.760" level="INFO">Creating Session using : alias=reqres, url=https://reqres.in/api, headers={},                     cookies={}, auth=None, timeout=None, proxies=None, verify=False,                     debug=0 </msg>
<status status="PASS" starttime="20200517 09:27:48.759" endtime="20200517 09:27:48.760"></status>
</kw>
<kw name="Get Request" library="RequestsLibrary">
<doc>Send a GET request on the session object found using the
given `alias`</doc>
<arguments>
<arg>reqres</arg>
<arg>unknown/${id}</arg>
</arguments>
<assign>
<var>${resp}</var>
</assign>
<msg timestamp="20200517 09:27:49.512" level="INFO">GET Request : url=https://reqres.in/api/unknown/ 
 path_url=/api/unknown/ 
 headers={'User-Agent': 'python-requests/2.23.0', 'Accept-Encoding': 'gzip, deflate', 'Accept': '*/*', 'Connection': 'keep-alive'} 
 body=None 
 </msg>
<msg timestamp="20200517 09:27:49.513" level="INFO">GET Response : url=https://reqres.in/api/unknown/ 
 status=200, reason=OK 
 body={"page":1,"per_page":6,"total":12,"total_pages":2,"data":[{"id":1,"name":"cerulean","year":2000,"color":"#98B2D1","pantone_value":"15-4020"},{"id":2,"name":"fuchsia rose","year":2001,"color":"#C74375","pantone_value":"17-2031"},{"id":3,"name":"true red","year":2002,"color":"#BF1932","pantone_value":"19-1664"},{"id":4,"name":"aqua sky","year":2003,"color":"#7BC4C4","pantone_value":"14-4811"},{"id":5,"name":"tigerlily","year":2004,"color":"#E2583E","pantone_value":"17-1456"},{"id":6,"name":"blue turquoise","year":2005,"color":"#53B0AE","pantone_value":"15-5217"}],"ad":{"company":"StatusCode Weekly","url":"http://statuscode.org/","text":"A weekly newsletter focusing on software development, infrastructure, the server, performance, and the stack end of things."}} 
 </msg>
<msg timestamp="20200517 09:27:49.513" level="INFO">c:\python38\lib\site-packages\urllib3\connectionpool.py:997: InsecureRequestWarning: Unverified HTTPS request is being made to host 'reqres.in'. Adding certificate verification is strongly advised. See: https://urllib3.readthedocs.io/en/latest/advanced-usage.html#ssl-warnings
  warnings.warn(</msg>
<msg timestamp="20200517 09:27:49.515" level="INFO">${resp} = &lt;Response [200]&gt;</msg>
<status status="PASS" starttime="20200517 09:27:48.760" endtime="20200517 09:27:49.515"></status>
</kw>
<msg timestamp="20200517 09:27:49.516" level="INFO">${resp} = &lt;Response [200]&gt;</msg>
<status status="PASS" starttime="20200517 09:27:48.759" endtime="20200517 09:27:49.516"></status>
</kw>
<kw name="Status Should Be" library="RequestsLibrary">
<doc>Fails if response status code is different than the expected.</doc>
<arguments>
<arg>200</arg>
<arg>${resp}</arg>
</arguments>
<status status="PASS" starttime="20200517 09:27:49.518" endtime="20200517 09:27:49.519"></status>
</kw>
<status status="PASS" starttime="20200517 09:27:48.758" endtime="20200517 09:27:49.521" critical="yes"></status>
</test>
<test id="s1-s1-t2" name="Get Single">
<kw name="Get Resources" library="services">
<arguments>
<arg>2</arg>
</arguments>
<assign>
<var>${resp}</var>
</assign>
<kw name="Create Session" library="RequestsLibrary">
<doc>Create Session: create a HTTP session to a server</doc>
<arguments>
<arg>reqres</arg>
<arg>https://reqres.in/api</arg>
</arguments>
<msg timestamp="20200517 09:27:49.529" level="INFO">Creating Session using : alias=reqres, url=https://reqres.in/api, headers={},                     cookies={}, auth=None, timeout=None, proxies=None, verify=False,                     debug=0 </msg>
<status status="PASS" starttime="20200517 09:27:49.528" endtime="20200517 09:27:49.530"></status>
</kw>
<kw name="Get Request" library="RequestsLibrary">
<doc>Send a GET request on the session object found using the
given `alias`</doc>
<arguments>
<arg>reqres</arg>
<arg>unknown/${id}</arg>
</arguments>
<assign>
<var>${resp}</var>
</assign>
<msg timestamp="20200517 09:27:50.191" level="INFO">GET Request : url=https://reqres.in/api/unknown/2 
 path_url=/api/unknown/2 
 headers={'User-Agent': 'python-requests/2.23.0', 'Accept-Encoding': 'gzip, deflate', 'Accept': '*/*', 'Connection': 'keep-alive'} 
 body=None 
 </msg>
<msg timestamp="20200517 09:27:50.191" level="INFO">GET Response : url=https://reqres.in/api/unknown/2 
 status=200, reason=OK 
 body={"data":{"id":2,"name":"fuchsia rose","year":2001,"color":"#C74375","pantone_value":"17-2031"},"ad":{"company":"StatusCode Weekly","url":"http://statuscode.org/","text":"A weekly newsletter focusing on software development, infrastructure, the server, performance, and the stack end of things."}} 
 </msg>
<msg timestamp="20200517 09:27:50.191" level="INFO">c:\python38\lib\site-packages\urllib3\connectionpool.py:997: InsecureRequestWarning: Unverified HTTPS request is being made to host 'reqres.in'. Adding certificate verification is strongly advised. See: https://urllib3.readthedocs.io/en/latest/advanced-usage.html#ssl-warnings
  warnings.warn(</msg>
<msg timestamp="20200517 09:27:50.194" level="INFO">${resp} = &lt;Response [200]&gt;</msg>
<status status="PASS" starttime="20200517 09:27:49.531" endtime="20200517 09:27:50.195"></status>
</kw>
<msg timestamp="20200517 09:27:50.195" level="INFO">${resp} = &lt;Response [200]&gt;</msg>
<status status="PASS" starttime="20200517 09:27:49.527" endtime="20200517 09:27:50.195"></status>
</kw>
<kw name="Status Should Be" library="RequestsLibrary">
<doc>Fails if response status code is different than the expected.</doc>
<arguments>
<arg>200</arg>
<arg>${resp}</arg>
</arguments>
<status status="PASS" starttime="20200517 09:27:50.196" endtime="20200517 09:27:50.197"></status>
</kw>
<status status="PASS" starttime="20200517 09:27:49.525" endtime="20200517 09:27:50.198" critical="yes"></status>
</test>
<test id="s1-s1-t3" name="Get Single 404">
<kw name="Get Resources" library="services">
<arguments>
<arg>23</arg>
</arguments>
<assign>
<var>${resp}</var>
</assign>
<kw name="Create Session" library="RequestsLibrary">
<doc>Create Session: create a HTTP session to a server</doc>
<arguments>
<arg>reqres</arg>
<arg>https://reqres.in/api</arg>
</arguments>
<msg timestamp="20200517 09:27:50.209" level="INFO">Creating Session using : alias=reqres, url=https://reqres.in/api, headers={},                     cookies={}, auth=None, timeout=None, proxies=None, verify=False,                     debug=0 </msg>
<status status="PASS" starttime="20200517 09:27:50.208" endtime="20200517 09:27:50.211"></status>
</kw>
<kw name="Get Request" library="RequestsLibrary">
<doc>Send a GET request on the session object found using the
given `alias`</doc>
<arguments>
<arg>reqres</arg>
<arg>unknown/${id}</arg>
</arguments>
<assign>
<var>${resp}</var>
</assign>
<msg timestamp="20200517 09:27:50.891" level="INFO">GET Request : url=https://reqres.in/api/unknown/23 
 path_url=/api/unknown/23 
 headers={'User-Agent': 'python-requests/2.23.0', 'Accept-Encoding': 'gzip, deflate', 'Accept': '*/*', 'Connection': 'keep-alive'} 
 body=None 
 </msg>
<msg timestamp="20200517 09:27:50.891" level="INFO">GET Response : url=https://reqres.in/api/unknown/23 
 status=404, reason=Not Found 
 body={} 
 </msg>
<msg timestamp="20200517 09:27:50.891" level="INFO">c:\python38\lib\site-packages\urllib3\connectionpool.py:997: InsecureRequestWarning: Unverified HTTPS request is being made to host 'reqres.in'. Adding certificate verification is strongly advised. See: https://urllib3.readthedocs.io/en/latest/advanced-usage.html#ssl-warnings
  warnings.warn(</msg>
<msg timestamp="20200517 09:27:50.897" level="INFO">${resp} = &lt;Response [404]&gt;</msg>
<status status="PASS" starttime="20200517 09:27:50.212" endtime="20200517 09:27:50.897"></status>
</kw>
<msg timestamp="20200517 09:27:50.898" level="INFO">${resp} = &lt;Response [404]&gt;</msg>
<status status="PASS" starttime="20200517 09:27:50.206" endtime="20200517 09:27:50.898"></status>
</kw>
<kw name="Status Should Be" library="RequestsLibrary">
<doc>Fails if response status code is different than the expected.</doc>
<arguments>
<arg>404</arg>
<arg>${resp}</arg>
</arguments>
<status status="PASS" starttime="20200517 09:27:50.900" endtime="20200517 09:27:50.901"></status>
</kw>
<status status="PASS" starttime="20200517 09:27:50.204" endtime="20200517 09:27:50.903" critical="yes"></status>
</test>
<doc>Reqres API / Resources</doc>
<status status="PASS" starttime="20200517 09:27:48.359" endtime="20200517 09:27:50.912"></status>
</suite>
<suite id="s1-s2" name="Request Users" source="C:\Projects\Desafio Conductor\backend\tests\request_users.robot">
<test id="s1-s2-t1" name="Post Create User">
<kw name="Get Json" library="services">
<arguments>
<arg>user01.json</arg>
</arguments>
<assign>
<var>${payload}</var>
</assign>
<kw name="Get File" library="OperatingSystem">
<doc>Returns the contents of a specified file.</doc>
<arguments>
<arg>${EXECDIR}/resources/fixtures/${json_file}</arg>
</arguments>
<assign>
<var>${file}</var>
</assign>
<msg timestamp="20200517 09:27:50.937" level="INFO" html="yes">Getting file '&lt;a href="file://C:\Projects\Desafio Conductor\backend\resources\fixtures\user01.json"&gt;C:\Projects\Desafio Conductor\backend\resources\fixtures\user01.json&lt;/a&gt;'.</msg>
<msg timestamp="20200517 09:27:50.948" level="INFO">${file} = {
    "name": "morpheus",
    "job": "leader"
}</msg>
<status status="PASS" starttime="20200517 09:27:50.936" endtime="20200517 09:27:50.948"></status>
</kw>
<kw name="Evaluate" library="BuiltIn">
<doc>Evaluates the given expression in Python and returns the results.</doc>
<arguments>
<arg>json.loads($file)</arg>
<arg>json</arg>
</arguments>
<assign>
<var>${json}</var>
</assign>
<msg timestamp="20200517 09:27:50.964" level="INFO">${json} = {'name': 'morpheus', 'job': 'leader'}</msg>
<status status="PASS" starttime="20200517 09:27:50.948" endtime="20200517 09:27:50.964"></status>
</kw>
<msg timestamp="20200517 09:27:50.965" level="INFO">${payload} = {'name': 'morpheus', 'job': 'leader'}</msg>
<status status="PASS" starttime="20200517 09:27:50.935" endtime="20200517 09:27:50.965"></status>
</kw>
<kw name="Post User" library="services">
<arguments>
<arg>${payload}</arg>
</arguments>
<assign>
<var>${resp}</var>
</assign>
<kw name="Create Session" library="RequestsLibrary">
<doc>Create Session: create a HTTP session to a server</doc>
<arguments>
<arg>reqres</arg>
<arg>https://reqres.in/api</arg>
</arguments>
<msg timestamp="20200517 09:27:50.967" level="INFO">Creating Session using : alias=reqres, url=https://reqres.in/api, headers={},                     cookies={}, auth=None, timeout=None, proxies=None, verify=False,                     debug=0 </msg>
<status status="PASS" starttime="20200517 09:27:50.967" endtime="20200517 09:27:50.968"></status>
</kw>
<kw name="Post Request" library="RequestsLibrary">
<doc>Send a POST request on the session object found using the
given `alias`</doc>
<arguments>
<arg>reqres</arg>
<arg>users/</arg>
<arg>${payload}</arg>
</arguments>
<assign>
<var>${resp}</var>
</assign>
<msg timestamp="20200517 09:27:51.629" level="INFO">POST Request : url=https://reqres.in/api/users/ 
 path_url=/api/users/ 
 headers={'User-Agent': 'python-requests/2.23.0', 'Accept-Encoding': 'gzip, deflate', 'Accept': '*/*', 'Connection': 'keep-alive', 'Content-Length': '24'} 
 body=name=morpheus&amp;job=leader 
 </msg>
<msg timestamp="20200517 09:27:51.629" level="INFO">POST Response : url=https://reqres.in/api/users/ 
 status=201, reason=Created 
 body={"id":"84","createdAt":"2020-05-17T12:27:51.442Z"} 
 </msg>
<msg timestamp="20200517 09:27:51.629" level="INFO">c:\python38\lib\site-packages\urllib3\connectionpool.py:997: InsecureRequestWarning: Unverified HTTPS request is being made to host 'reqres.in'. Adding certificate verification is strongly advised. See: https://urllib3.readthedocs.io/en/latest/advanced-usage.html#ssl-warnings
  warnings.warn(</msg>
<msg timestamp="20200517 09:27:51.633" level="INFO">${resp} = &lt;Response [201]&gt;</msg>
<status status="PASS" starttime="20200517 09:27:50.968" endtime="20200517 09:27:51.633"></status>
</kw>
<msg timestamp="20200517 09:27:51.633" level="INFO">${resp} = &lt;Response [201]&gt;</msg>
<status status="PASS" starttime="20200517 09:27:50.966" endtime="20200517 09:27:51.633"></status>
</kw>
<kw name="Status Should Be" library="RequestsLibrary">
<doc>Fails if response status code is different than the expected.</doc>
<arguments>
<arg>201</arg>
<arg>${resp}</arg>
</arguments>
<status status="PASS" starttime="20200517 09:27:51.634" endtime="20200517 09:27:51.635"></status>
</kw>
<status status="PASS" starttime="20200517 09:27:50.934" endtime="20200517 09:27:51.636" critical="yes"></status>
</test>
<test id="s1-s2-t2" name="Put Update User">
<kw name="Get Json" library="services">
<arguments>
<arg>user02.json</arg>
</arguments>
<assign>
<var>${payload}</var>
</assign>
<kw name="Get File" library="OperatingSystem">
<doc>Returns the contents of a specified file.</doc>
<arguments>
<arg>${EXECDIR}/resources/fixtures/${json_file}</arg>
</arguments>
<assign>
<var>${file}</var>
</assign>
<msg timestamp="20200517 09:27:51.643" level="INFO" html="yes">Getting file '&lt;a href="file://C:\Projects\Desafio Conductor\backend\resources\fixtures\user02.json"&gt;C:\Projects\Desafio Conductor\backend\resources\fixtures\user02.json&lt;/a&gt;'.</msg>
<msg timestamp="20200517 09:27:51.654" level="INFO">${file} = {
    "name": "morpheus",
    "job": "zion resident"
}</msg>
<status status="PASS" starttime="20200517 09:27:51.642" endtime="20200517 09:27:51.654"></status>
</kw>
<kw name="Evaluate" library="BuiltIn">
<doc>Evaluates the given expression in Python and returns the results.</doc>
<arguments>
<arg>json.loads($file)</arg>
<arg>json</arg>
</arguments>
<assign>
<var>${json}</var>
</assign>
<msg timestamp="20200517 09:27:51.657" level="INFO">${json} = {'name': 'morpheus', 'job': 'zion resident'}</msg>
<status status="PASS" starttime="20200517 09:27:51.655" endtime="20200517 09:27:51.657"></status>
</kw>
<msg timestamp="20200517 09:27:51.657" level="INFO">${payload} = {'name': 'morpheus', 'job': 'zion resident'}</msg>
<status status="PASS" starttime="20200517 09:27:51.641" endtime="20200517 09:27:51.657"></status>
</kw>
<kw name="Put User" library="services">
<arguments>
<arg>2</arg>
<arg>${payload}</arg>
</arguments>
<assign>
<var>${resp}</var>
</assign>
<kw name="Create Session" library="RequestsLibrary">
<doc>Create Session: create a HTTP session to a server</doc>
<arguments>
<arg>reqres</arg>
<arg>https://reqres.in/api</arg>
</arguments>
<msg timestamp="20200517 09:27:51.661" level="INFO">Creating Session using : alias=reqres, url=https://reqres.in/api, headers={},                     cookies={}, auth=None, timeout=None, proxies=None, verify=False,                     debug=0 </msg>
<status status="PASS" starttime="20200517 09:27:51.661" endtime="20200517 09:27:51.662"></status>
</kw>
<kw name="Put Request" library="RequestsLibrary">
<doc>Send a PUT request on the session object found using the
given `alias`</doc>
<arguments>
<arg>reqres</arg>
<arg>users/${id}</arg>
<arg>${payload}</arg>
</arguments>
<assign>
<var>${resp}</var>
</assign>
<msg timestamp="20200517 09:27:52.298" level="INFO">PUT Request : url=https://reqres.in/api/users/2 
 path_url=/api/users/2 
 headers={'User-Agent': 'python-requests/2.23.0', 'Accept-Encoding': 'gzip, deflate', 'Accept': '*/*', 'Connection': 'keep-alive', 'Content-Length': '31'} 
 body=name=morpheus&amp;job=zion+resident 
 </msg>
<msg timestamp="20200517 09:27:52.298" level="INFO">PUT Response : url=https://reqres.in/api/users/2 
 status=200, reason=OK 
 body={"updatedAt":"2020-05-17T12:27:52.103Z"} 
 </msg>
<msg timestamp="20200517 09:27:52.299" level="INFO">c:\python38\lib\site-packages\urllib3\connectionpool.py:997: InsecureRequestWarning: Unverified HTTPS request is being made to host 'reqres.in'. Adding certificate verification is strongly advised. See: https://urllib3.readthedocs.io/en/latest/advanced-usage.html#ssl-warnings
  warnings.warn(</msg>
<msg timestamp="20200517 09:27:52.304" level="INFO">${resp} = &lt;Response [200]&gt;</msg>
<status status="PASS" starttime="20200517 09:27:51.662" endtime="20200517 09:27:52.305"></status>
</kw>
<msg timestamp="20200517 09:27:52.306" level="INFO">${resp} = &lt;Response [200]&gt;</msg>
<status status="PASS" starttime="20200517 09:27:51.659" endtime="20200517 09:27:52.306"></status>
</kw>
<kw name="Status Should Be" library="RequestsLibrary">
<doc>Fails if response status code is different than the expected.</doc>
<arguments>
<arg>200</arg>
<arg>${resp}</arg>
</arguments>
<status status="PASS" starttime="20200517 09:27:52.308" endtime="20200517 09:27:52.309"></status>
</kw>
<status status="PASS" starttime="20200517 09:27:51.640" endtime="20200517 09:27:52.310" critical="yes"></status>
</test>
<test id="s1-s2-t3" name="Get List User">
<kw name="Get User" library="services">
<arguments>
<arg>2</arg>
</arguments>
<assign>
<var>${resp}</var>
</assign>
<kw name="Create Session" library="RequestsLibrary">
<doc>Create Session: create a HTTP session to a server</doc>
<arguments>
<arg>reqres</arg>
<arg>https://reqres.in/api</arg>
</arguments>
<msg timestamp="20200517 09:27:52.323" level="INFO">Creating Session using : alias=reqres, url=https://reqres.in/api, headers={},                     cookies={}, auth=None, timeout=None, proxies=None, verify=False,                     debug=0 </msg>
<status status="PASS" starttime="20200517 09:27:52.322" endtime="20200517 09:27:52.325"></status>
</kw>
<kw name="Get Request" library="RequestsLibrary">
<doc>Send a GET request on the session object found using the
given `alias`</doc>
<arguments>
<arg>reqres</arg>
<arg>users/${id}</arg>
</arguments>
<assign>
<var>${resp}</var>
</assign>
<msg timestamp="20200517 09:27:52.981" level="INFO">GET Request : url=https://reqres.in/api/users/2 
 path_url=/api/users/2 
 headers={'User-Agent': 'python-requests/2.23.0', 'Accept-Encoding': 'gzip, deflate', 'Accept': '*/*', 'Connection': 'keep-alive'} 
 body=None 
 </msg>
<msg timestamp="20200517 09:27:52.981" level="INFO">GET Response : url=https://reqres.in/api/users/2 
 status=200, reason=OK 
 body={"data":{"id":2,"email":"janet.weaver@reqres.in","first_name":"Janet","last_name":"Weaver","avatar":"https://s3.amazonaws.com/uifaces/faces/twitter/josephstein/128.jpg"},"ad":{"company":"StatusCode Weekly","url":"http://statuscode.org/","text":"A weekly newsletter focusing on software development, infrastructure, the server, performance, and the stack end of things."}} 
 </msg>
<msg timestamp="20200517 09:27:52.981" level="INFO">c:\python38\lib\site-packages\urllib3\connectionpool.py:997: InsecureRequestWarning: Unverified HTTPS request is being made to host 'reqres.in'. Adding certificate verification is strongly advised. See: https://urllib3.readthedocs.io/en/latest/advanced-usage.html#ssl-warnings
  warnings.warn(</msg>
<msg timestamp="20200517 09:27:52.985" level="INFO">${resp} = &lt;Response [200]&gt;</msg>
<status status="PASS" starttime="20200517 09:27:52.326" endtime="20200517 09:27:52.986"></status>
</kw>
<msg timestamp="20200517 09:27:52.986" level="INFO">${resp} = &lt;Response [200]&gt;</msg>
<status status="PASS" starttime="20200517 09:27:52.319" endtime="20200517 09:27:52.986"></status>
</kw>
<kw name="Status Should Be" library="RequestsLibrary">
<doc>Fails if response status code is different than the expected.</doc>
<arguments>
<arg>200</arg>
<arg>${resp}</arg>
</arguments>
<status status="PASS" starttime="20200517 09:27:52.988" endtime="20200517 09:27:52.989"></status>
</kw>
<status status="PASS" starttime="20200517 09:27:52.316" endtime="20200517 09:27:52.990" critical="yes"></status>
</test>
<test id="s1-s2-t4" name="Get List User 404">
<kw name="Get User" library="services">
<arguments>
<arg>23</arg>
</arguments>
<assign>
<var>${resp}</var>
</assign>
<kw name="Create Session" library="RequestsLibrary">
<doc>Create Session: create a HTTP session to a server</doc>
<arguments>
<arg>reqres</arg>
<arg>https://reqres.in/api</arg>
</arguments>
<msg timestamp="20200517 09:27:52.996" level="INFO">Creating Session using : alias=reqres, url=https://reqres.in/api, headers={},                     cookies={}, auth=None, timeout=None, proxies=None, verify=False,                     debug=0 </msg>
<status status="PASS" starttime="20200517 09:27:52.996" endtime="20200517 09:27:52.997"></status>
</kw>
<kw name="Get Request" library="RequestsLibrary">
<doc>Send a GET request on the session object found using the
given `alias`</doc>
<arguments>
<arg>reqres</arg>
<arg>users/${id}</arg>
</arguments>
<assign>
<var>${resp}</var>
</assign>
<msg timestamp="20200517 09:27:53.632" level="INFO">GET Request : url=https://reqres.in/api/users/23 
 path_url=/api/users/23 
 headers={'User-Agent': 'python-requests/2.23.0', 'Accept-Encoding': 'gzip, deflate', 'Accept': '*/*', 'Connection': 'keep-alive'} 
 body=None 
 </msg>
<msg timestamp="20200517 09:27:53.633" level="INFO">GET Response : url=https://reqres.in/api/users/23 
 status=404, reason=Not Found 
 body={} 
 </msg>
<msg timestamp="20200517 09:27:53.633" level="INFO">c:\python38\lib\site-packages\urllib3\connectionpool.py:997: InsecureRequestWarning: Unverified HTTPS request is being made to host 'reqres.in'. Adding certificate verification is strongly advised. See: https://urllib3.readthedocs.io/en/latest/advanced-usage.html#ssl-warnings
  warnings.warn(</msg>
<msg timestamp="20200517 09:27:53.638" level="INFO">${resp} = &lt;Response [404]&gt;</msg>
<status status="PASS" starttime="20200517 09:27:52.997" endtime="20200517 09:27:53.638"></status>
</kw>
<msg timestamp="20200517 09:27:53.639" level="INFO">${resp} = &lt;Response [404]&gt;</msg>
<status status="PASS" starttime="20200517 09:27:52.995" endtime="20200517 09:27:53.639"></status>
</kw>
<kw name="Status Should Be" library="RequestsLibrary">
<doc>Fails if response status code is different than the expected.</doc>
<arguments>
<arg>404</arg>
<arg>${resp}</arg>
</arguments>
<status status="PASS" starttime="20200517 09:27:53.641" endtime="20200517 09:27:53.642"></status>
</kw>
<status status="PASS" starttime="20200517 09:27:52.993" endtime="20200517 09:27:53.644" critical="yes"></status>
</test>
<test id="s1-s2-t5" name="Get List Users">
<kw name="Get User" library="services">
<arguments>
<arg>?page=2</arg>
</arguments>
<assign>
<var>${resp}</var>
</assign>
<kw name="Create Session" library="RequestsLibrary">
<doc>Create Session: create a HTTP session to a server</doc>
<arguments>
<arg>reqres</arg>
<arg>https://reqres.in/api</arg>
</arguments>
<msg timestamp="20200517 09:27:53.652" level="INFO">Creating Session using : alias=reqres, url=https://reqres.in/api, headers={},                     cookies={}, auth=None, timeout=None, proxies=None, verify=False,                     debug=0 </msg>
<status status="PASS" starttime="20200517 09:27:53.651" endtime="20200517 09:27:53.652"></status>
</kw>
<kw name="Get Request" library="RequestsLibrary">
<doc>Send a GET request on the session object found using the
given `alias`</doc>
<arguments>
<arg>reqres</arg>
<arg>users/${id}</arg>
</arguments>
<assign>
<var>${resp}</var>
</assign>
<msg timestamp="20200517 09:27:54.311" level="INFO">GET Request : url=https://reqres.in/api/users/?page=2 
 path_url=/api/users/?page=2 
 headers={'User-Agent': 'python-requests/2.23.0', 'Accept-Encoding': 'gzip, deflate', 'Accept': '*/*', 'Connection': 'keep-alive'} 
 body=None 
 </msg>
<msg timestamp="20200517 09:27:54.312" level="INFO">GET Response : url=https://reqres.in/api/users/?page=2 
 status=200, reason=OK 
 body={"page":2,"per_page":6,"total":12,"total_pages":2,"data":[{"id":7,"email":"michael.lawson@reqres.in","first_name":"Michael","last_name":"Lawson","avatar":"https://s3.amazonaws.com/uifaces/faces/twitter/follettkyle/128.jpg"},{"id":8,"email":"lindsay.ferguson@reqres.in","first_name":"Lindsay","last_name":"Ferguson","avatar":"https://s3.amazonaws.com/uifaces/faces/twitter/araa3185/128.jpg"},{"id":9,"email":"tobias.funke@reqres.in","first_name":"Tobias","last_name":"Funke","avatar":"https://s3.amazonaws.com/uifaces/faces/twitter/vivekprvr/128.jpg"},{"id":10,"email":"byron.fields@reqres.in","first_name":"Byron","last_name":"Fields","avatar":"https://s3.amazonaws.com/uifaces/faces/twitter/russoedu/128.jpg"},{"id":11,"email":"george.edwards@reqres.in","first_name":"George","last_name":"Edwards","avatar":"https://s3.amazonaws.com/uifaces/faces/twitter/mrmoiree/128.jpg"},{"id":12,"email":"rachel.howell@reqres.in","first_name":"Rachel","last_name":"Howell","avatar":"https://s3.amazonaws.com/uifaces/faces/twitter/hebertialmeida/128.jpg"}],"ad":{"company":"StatusCode Weekly","url":"http://statuscode.org/","text":"A weekly newsletter focusing on software development, infrastructure, the server, performance, and the stack end of things."}} 
 </msg>
<msg timestamp="20200517 09:27:54.312" level="INFO">c:\python38\lib\site-packages\urllib3\connectionpool.py:997: InsecureRequestWarning: Unverified HTTPS request is being made to host 'reqres.in'. Adding certificate verification is strongly advised. See: https://urllib3.readthedocs.io/en/latest/advanced-usage.html#ssl-warnings
  warnings.warn(</msg>
<msg timestamp="20200517 09:27:54.315" level="INFO">${resp} = &lt;Response [200]&gt;</msg>
<status status="PASS" starttime="20200517 09:27:53.653" endtime="20200517 09:27:54.315"></status>
</kw>
<msg timestamp="20200517 09:27:54.316" level="INFO">${resp} = &lt;Response [200]&gt;</msg>
<status status="PASS" starttime="20200517 09:27:53.650" endtime="20200517 09:27:54.316"></status>
</kw>
<kw name="Status Should Be" library="RequestsLibrary">
<doc>Fails if response status code is different than the expected.</doc>
<arguments>
<arg>200</arg>
<arg>${resp}</arg>
</arguments>
<status status="PASS" starttime="20200517 09:27:54.318" endtime="20200517 09:27:54.318"></status>
</kw>
<status status="PASS" starttime="20200517 09:27:53.649" endtime="20200517 09:27:54.319" critical="yes"></status>
</test>
<test id="s1-s2-t6" name="Delete User">
<kw name="Delete User" library="services">
<arguments>
<arg>2</arg>
</arguments>
<assign>
<var>${resp}</var>
</assign>
<kw name="Create Session" library="RequestsLibrary">
<doc>Create Session: create a HTTP session to a server</doc>
<arguments>
<arg>reqres</arg>
<arg>https://reqres.in/api</arg>
</arguments>
<msg timestamp="20200517 09:27:54.326" level="INFO">Creating Session using : alias=reqres, url=https://reqres.in/api, headers={},                     cookies={}, auth=None, timeout=None, proxies=None, verify=False,                     debug=0 </msg>
<status status="PASS" starttime="20200517 09:27:54.325" endtime="20200517 09:27:54.326"></status>
</kw>
<kw name="Delete Request" library="RequestsLibrary">
<doc>Send a DELETE request on the session object found using the
given `alias`</doc>
<arguments>
<arg>reqres</arg>
<arg>users/${id}</arg>
</arguments>
<assign>
<var>${resp}</var>
</assign>
<msg timestamp="20200517 09:27:54.984" level="INFO">DELETE Request : url=https://reqres.in/api/users/2 
 path_url=/api/users/2 
 headers={'User-Agent': 'python-requests/2.23.0', 'Accept-Encoding': 'gzip, deflate', 'Accept': '*/*', 'Connection': 'keep-alive', 'Content-Length': '0'} 
 body=None 
 </msg>
<msg timestamp="20200517 09:27:54.984" level="INFO">DELETE Response : url=https://reqres.in/api/users/2 
 status=204, reason=No Content 
 body=None 
 </msg>
<msg timestamp="20200517 09:27:54.984" level="INFO">c:\python38\lib\site-packages\urllib3\connectionpool.py:997: InsecureRequestWarning: Unverified HTTPS request is being made to host 'reqres.in'. Adding certificate verification is strongly advised. See: https://urllib3.readthedocs.io/en/latest/advanced-usage.html#ssl-warnings
  warnings.warn(</msg>
<msg timestamp="20200517 09:27:54.989" level="INFO">${resp} = &lt;Response [204]&gt;</msg>
<status status="PASS" starttime="20200517 09:27:54.327" endtime="20200517 09:27:54.990"></status>
</kw>
<msg timestamp="20200517 09:27:54.990" level="INFO">${resp} = &lt;Response [204]&gt;</msg>
<status status="PASS" starttime="20200517 09:27:54.324" endtime="20200517 09:27:54.991"></status>
</kw>
<kw name="Status Should Be" library="RequestsLibrary">
<doc>Fails if response status code is different than the expected.</doc>
<arguments>
<arg>204</arg>
<arg>${resp}</arg>
</arguments>
<status status="PASS" starttime="20200517 09:27:54.993" endtime="20200517 09:27:54.994"></status>
</kw>
<status status="PASS" starttime="20200517 09:27:54.323" endtime="20200517 09:27:54.996" critical="yes"></status>
</test>
<doc>Reqres API / Users</doc>
<status status="PASS" starttime="20200517 09:27:50.922" endtime="20200517 09:27:55.005"></status>
</suite>
<status status="PASS" starttime="20200517 09:27:48.312" endtime="20200517 09:27:55.025"></status>
</suite>
<statistics>
<total>
<stat pass="9" fail="0">Critical Tests</stat>
<stat pass="9" fail="0">All Tests</stat>
</total>
<tag>
</tag>
<suite>
<stat pass="9" fail="0" id="s1" name="Tests">Tests</stat>
<stat pass="3" fail="0" id="s1-s1" name="Request Resource">Tests.Request Resource</stat>
<stat pass="6" fail="0" id="s1-s2" name="Request Users">Tests.Request Users</stat>
</suite>
</statistics>
<errors>
</errors>
</robot>
